…
``` r
library(readr) #install.packages("readr")
library(tidyverse)
library(lubridate)

weather_Taiwan <- read_csv(
  "https://raw.githubusercontent.com/nt246/NTRES-6100-data-science/master/datasets/2015y_Weather_Station.csv",
  col_names = TRUE,
  col_types = cols(.default = "c")
)

weather_Taiwan
```

    # A tibble: 5,460 × 27
       date      station item  `00`  `01`  `02`  `03`  `04`  `05`  `06`  `07`  `08` 
       <chr>     <chr>   <chr> <chr> <chr> <chr> <chr> <chr> <chr> <chr> <chr> <chr>
     1 2015/01/… Cailiao AMB_… 16    16    15    15    15    14    14    14    14   
     2 2015/01/… Cailiao CO    0.74  0.7   0.66  0.61  0.51  0.51  0.51  0.6   0.62 
     3 2015/01/… Cailiao NO    1     0.8   1.1   1.7   2     1.7   1.9   2.4   3.4  
     4 2015/01/… Cailiao NO2   15    13    13    12    11    13    13    16    16   
     5 2015/01/… Cailiao NOx   16    14    14    13    13    15    15    18    19   
     6 2015/01/… Cailiao O3    35    36    35    34    34    32    30    26    26   
     7 2015/01/… Cailiao PM10  171   174   160   142   123   110   104   104   109  
     8 2015/01/… Cailiao PM2.5 76    78    69    60    52    44    40    41    44   
     9 2015/01/… Cailiao RAIN… NR    NR    NR    NR    NR    NR    NR    NR    NR   
    10 2015/01/… Cailiao RH    57    57    58    59    59    57    57    56    53   
    # ℹ 5,450 more rows
    # ℹ 15 more variables: `09` <chr>, `10` <chr>, `11` <chr>, `12` <chr>,
    #   `13` <chr>, `14` <chr>, `15` <chr>, `16` <chr>, `17` <chr>, `18` <chr>,
    #   `19` <chr>, `20` <chr>, `21` <chr>, `22` <chr>, `23` <chr>
…
